test-output.vcd
$timescale 10ns $end
$scope module logic $end
$var wire 8 ! PORT_B $end
$var wire 8 " PIN_C $end
$var wire 8 # PORT_C $end
$upscope $end
$enddefinitions $end
$dumpvars
bxxxxxxxx !
bxxxxxxxx "
bxxxxxxxx #
$end
#325
b00000000 #
#400
b00000000 !
#600
b00000010 "
#762
b00000010 !
#763
b00000010 !
#975
b00000010 "
#1137
b00000010 !
#1138
b00000010 !
#1350
b00000000 "
#1525
b00000010 !
#1526
b00000010 !
#1712
b00000000 "
#1887
b00000011 !
#1888
b00000011 !
#2075
b00000010 "
#2237
b00000010 !
#2238
b00000010 !
#2450
b00000010 "
#2612
b00000010 !
#2613
b00000010 !
#2825
b00000010 "
#2987
b00000010 !
#2988
b00000010 !
#3200
b00000000 "
#3375
b00000111 !
#3376
b00000111 !
#3562
b00000000 "
#3737
b00001000 !
#3738
b00001000 !
#3925
b00000000 "
#4100
b00001001 !
#4101
b00001001 !
#4287
b00000000 "
#4462
b00001010 !
#4463
b00001010 !
#4650
b00000000 "
#4825
b00001011 !
#4826
b00001011 !
#5012
b00000000 "
#5187
b00001100 !
#5188
b00001100 !
#5375
b00000000 "
#5550
b00001101 !
#5551
b00001101 !
#5737
b00000000 "
#5912
b00001110 !
#5913
b00001110 !
#6100
b00000000 "
#6275
b00001111 !
#6276
b00001111 !
#6462
b00000000 "
#6637
b00010000 !
#6638
b00010000 !
#6825
b00000000 "
#7000
b00010001 !
#7001
b00010001 !
#7187
b00000000 "
#7362
b00010010 !
#7363
b00010010 !
#7550
b00000000 "
#7725
b00010011 !
#7726
b00010011 !
#7912
b00000000 "
#8087
b00010100 !
#8088
b00010100 !
#8275
b00000000 "
#8450
b00010101 !
#8451
b00010101 !
#8637
b00000000 "
#8812
b00010110 !
#8813
b00010110 !
#9000
b00000000 "
#9175
b00010111 !
#9176
b00010111 !
#9362
b00000000 "
#9537
b00011000 !
#9538
b00011000 !
#9725
b00000000 "
#9900
b00011001 !
#9901
b00011001 !
#10087
b00000010 "
#10250
b00000010 !
#10251
b00000010 !
#10462
b00000010 "
#10625
b00000010 !
#10626
b00000010 !
#10837
b00000010 "
#11000
b00000010 !
#11001
b00000010 !
#11212
b00000010 "
#11375
b00000010 !
#11376
b00000010 !
#11587
b00000010 "
#11750
b00000010 !
#11751
b00000010 !
#11962
b00000010 "
#12125
b00000010 !
#12126
b00000010 !
#12337
b00000010 "
#12500
b00000010 !
#12501
b00000010 !
#12712
b00000010 "
#12875
b00000010 !
#12876
b00000010 !
#13087
b00000010 "
#13250
b00000010 !
#13251
b00000010 !
#13462
b00000010 "
#13625
b00000010 !
#13626
b00000010 !
#13837
b00000010 "
#14000
b00000010 !
#14001
b00000010 !
#14212
b00000010 "
#14375
b00000010 !
#14376
b00000010 !
#14587
b00000010 "
#14750
b00000010 !
#14751
b00000010 !
#14962
b00000010 "
